\relax 
\@writefile{toc}{\contentsline {chapter}{Wprowadzenie}{7}}
\@writefile{toc}{\contentsline {chapter}{\numberline {1}Podstawowe poj\IeC {\k e}cia}{9}}
\@writefile{lof}{\addvspace {10\p@ }}
\@writefile{lot}{\addvspace {10\p@ }}
\newlabel{r:pojecia}{{1}{9}}
\@writefile{toc}{\contentsline {section}{\numberline {1.1}Definicje}{9}}
\newlabel{POI}{{1.1.1}{9}}
\newlabel{sledzone_POI}{{1.1.2}{9}}
\newlabel{aktywne_POI}{{1.1.3}{9}}
\newlabel{u\IeC {\.z}ytkownik}{{1.1.4}{9}}
\newlabel{Firma BrightSight}{{1.1.5}{9}}
\newlabel{multitouch}{{1.1.6}{9}}
\newlabel{Firma BrightSight}{{1.1.7}{9}}
\@writefile{toc}{\contentsline {chapter}{\numberline {2}Cele projektu i motywacje}{11}}
\@writefile{lof}{\addvspace {10\p@ }}
\@writefile{lot}{\addvspace {10\p@ }}
\@writefile{toc}{\contentsline {section}{\numberline {2.1}Smartfony}{11}}
\@writefile{toc}{\contentsline {section}{\numberline {2.2}BrightSight}{11}}
\@writefile{toc}{\contentsline {section}{\numberline {2.3}Za\IeC {\l }o\IeC {\.z}enia aplikacji}{11}}
\gdef \LT@i {\LT@entry 
    {1}{84.26999pt}\LT@entry 
    {1}{156.54pt}\LT@entry 
    {1}{156.54pt}}
\@writefile{toc}{\contentsline {chapter}{\numberline {3}Analiza rynku}{13}}
\@writefile{lof}{\addvspace {10\p@ }}
\@writefile{lot}{\addvspace {10\p@ }}
\@writefile{toc}{\contentsline {section}{\numberline {3.1}Demografia rynku}{13}}
\@writefile{toc}{\contentsline {section}{\numberline {3.2}Konkurencyjne rozwi\IeC {\k a}zania}{13}}
\@writefile{toc}{\contentsline {subsection}{\numberline {3.2.1}Google Maps i jakdojade.pl}{13}}
\@writefile{toc}{\contentsline {subsection}{\numberline {3.2.2}Georgie}{13}}
\@writefile{toc}{\contentsline {subsection}{\numberline {3.2.3}Screen Readery}{13}}
\@writefile{toc}{\contentsline {subsection}{\numberline {3.2.4}Talks \& Zooms}{14}}
\@writefile{toc}{\contentsline {paragraph}{}{14}}
\@writefile{toc}{\contentsline {chapter}{\numberline {4}Wyb\IeC {\'o}r \IeC {\'s}rodowiska}{15}}
\@writefile{lof}{\addvspace {10\p@ }}
\@writefile{lot}{\addvspace {10\p@ }}
\@writefile{toc}{\contentsline {section}{\numberline {4.1}Wyb\IeC {\'o}r systemu operacyjnego}{15}}
\@writefile{toc}{\contentsline {section}{\numberline {4.2}System Kontroli wersji}{15}}
\@writefile{toc}{\contentsline {section}{\numberline {4.3}IDE}{16}}
\@writefile{toc}{\contentsline {chapter}{\numberline {5}Organizacja pracy}{17}}
\@writefile{lof}{\addvspace {10\p@ }}
\@writefile{lot}{\addvspace {10\p@ }}
\@writefile{toc}{\contentsline {section}{\numberline {5.1}Metodologia}{17}}
\@writefile{toc}{\contentsline {section}{\numberline {5.2}Harmonogram prac}{18}}
\@writefile{toc}{\contentsline {subsubsection}{Spotkania}{18}}
\@writefile{toc}{\contentsline {subsubsection}{Pa\IeC {\'z}dziernik-Listopad 2012}{18}}
\@writefile{toc}{\contentsline {subsubsection}{Grudzie\IeC {\'n} 2012}{18}}
\@writefile{toc}{\contentsline {subsubsection}{Stycze\IeC {\'n} 2013}{18}}
\@writefile{toc}{\contentsline {subsubsection}{Luty 2013}{19}}
\@writefile{toc}{\contentsline {subsubsection}{Marzec 2013}{19}}
\@writefile{toc}{\contentsline {subsubsection}{Kwiecie\IeC {\'n} 2013}{19}}
\@writefile{toc}{\contentsline {subsubsection}{Maj 2013}{19}}
\@writefile{toc}{\contentsline {subsubsection}{Czerwiec 2013}{19}}
\@writefile{toc}{\contentsline {chapter}{\numberline {6}Interfejs}{21}}
\@writefile{lof}{\addvspace {10\p@ }}
\@writefile{lot}{\addvspace {10\p@ }}
\@writefile{toc}{\contentsline {section}{\numberline {6.1}Menu g\IeC {\l }\IeC {\'o}wne}{22}}
\@writefile{toc}{\contentsline {section}{\numberline {6.2}\IeC {\'S}ledzenie}{22}}
\@writefile{toc}{\contentsline {section}{\numberline {6.3}Wyszukiwanie}{23}}
\@writefile{toc}{\contentsline {section}{\numberline {6.4}Szczeg\IeC {\'o}\IeC {\l }y POI}{23}}
\@writefile{toc}{\contentsline {section}{\numberline {6.5}Dodawanie}{24}}
\@writefile{toc}{\contentsline {section}{\numberline {6.6}Wprowadzanie tekstu}{24}}
\@writefile{toc}{\contentsline {section}{\numberline {6.7}Ustawienia}{25}}
\@writefile{toc}{\contentsline {chapter}{\numberline {7}Przypadki u\IeC {\.z}ycia}{27}}
\@writefile{lof}{\addvspace {10\p@ }}
\@writefile{lot}{\addvspace {10\p@ }}
\@writefile{toc}{\contentsline {section}{\numberline {7.1}Aktorzy}{27}}
\@writefile{toc}{\contentsline {section}{\numberline {7.2}Przypadki u\IeC {\.z}ycia}{27}}
\@writefile{toc}{\contentsline {subsection}{\numberline {7.2.1}Wyszukiwanie POI}{27}}
\@writefile{toc}{\contentsline {subsubsection}{Aktorzy}{27}}
\@writefile{toc}{\contentsline {subsubsection}{Za\IeC {\l }o\IeC {\.z}enia}{27}}
\@writefile{toc}{\contentsline {subsubsection}{Kr\IeC {\'o}tki opis}{27}}
\@writefile{toc}{\contentsline {subsubsection}{Czynno\IeC {\'s}ci}{27}}
\@writefile{toc}{\contentsline {subsection}{\numberline {7.2.2}Uruchomienie \IeC {\'s}ledzenia POI}{27}}
\@writefile{toc}{\contentsline {subsubsection}{Aktorzy}{27}}
\@writefile{toc}{\contentsline {subsubsection}{Za\IeC {\l }o\IeC {\.z}enia}{28}}
\@writefile{toc}{\contentsline {subsubsection}{Kr\IeC {\'o}tki opis}{28}}
\@writefile{toc}{\contentsline {subsubsection}{Czynno\IeC {\'s}ci}{28}}
\@writefile{toc}{\contentsline {subsection}{\numberline {7.2.3}Sprawdzanie w\IeC {\l }asnej lokacji}{28}}
\@writefile{toc}{\contentsline {subsubsection}{Aktorzy}{28}}
\@writefile{toc}{\contentsline {subsubsection}{Za\IeC {\l }o\IeC {\.z}enia}{28}}
\@writefile{toc}{\contentsline {subsubsection}{Kr\IeC {\'o}tki opis}{28}}
\@writefile{toc}{\contentsline {subsubsection}{Czynno\IeC {\'s}ci}{28}}
\@writefile{toc}{\contentsline {subsubsection}{Czynno\IeC {\'s}ci alternatywne}{28}}
\@writefile{toc}{\contentsline {subsection}{\numberline {7.2.4}Zako\IeC {\'n}czenie \IeC {\'s}ledzenia POI}{29}}
\@writefile{toc}{\contentsline {subsubsection}{Aktorzy}{29}}
\@writefile{toc}{\contentsline {subsubsection}{Za\IeC {\l }o\IeC {\.z}enia}{29}}
\@writefile{toc}{\contentsline {subsubsection}{Kr\IeC {\'o}tki opis}{29}}
\@writefile{toc}{\contentsline {subsubsection}{Czynno\IeC {\'s}ci}{29}}
\@writefile{toc}{\contentsline {subsection}{\numberline {7.2.5}Ustawianie alarmu na POI}{29}}
\@writefile{toc}{\contentsline {subsubsection}{Aktorzy}{29}}
\@writefile{toc}{\contentsline {subsubsection}{Za\IeC {\l }o\IeC {\.z}enia}{29}}
\@writefile{toc}{\contentsline {subsubsection}{Kr\IeC {\'o}tki opis}{29}}
\@writefile{toc}{\contentsline {subsubsection}{Czynno\IeC {\'s}ci}{29}}
\@writefile{toc}{\contentsline {subsubsection}{Czynno\IeC {\'s}ci alternatywne}{29}}
\@writefile{toc}{\contentsline {subsection}{\numberline {7.2.6}Alarm POI}{29}}
\@writefile{toc}{\contentsline {subsubsection}{Aktorzy}{29}}
\@writefile{toc}{\contentsline {subsubsection}{Za\IeC {\l }o\IeC {\.z}enia}{30}}
\@writefile{toc}{\contentsline {subsubsection}{Kr\IeC {\'o}tki opis}{30}}
\@writefile{toc}{\contentsline {subsection}{\numberline {7.2.7}Dodawanie POI}{30}}
\@writefile{toc}{\contentsline {subsubsection}{Aktorzy}{30}}
\@writefile{toc}{\contentsline {subsubsection}{Za\IeC {\l }o\IeC {\.z}enia}{30}}
\@writefile{toc}{\contentsline {subsubsection}{Kr\IeC {\'o}tki opis}{30}}
\@writefile{toc}{\contentsline {subsubsection}{Czynno\IeC {\'s}ci}{30}}
\@writefile{toc}{\contentsline {subsubsection}{Czynno\IeC {\'s}ci alternatywne}{30}}
\@writefile{toc}{\contentsline {subsection}{\numberline {7.2.8}Usuwanie POI}{31}}
\@writefile{toc}{\contentsline {subsubsection}{Aktorzy}{31}}
\@writefile{toc}{\contentsline {subsubsection}{Za\IeC {\l }o\IeC {\.z}enia}{31}}
\@writefile{toc}{\contentsline {subsubsection}{Czynno\IeC {\'s}ci}{31}}
\@writefile{toc}{\contentsline {subsection}{\numberline {7.2.9}Zmiana g\IeC {\l }o\IeC {\'s}no\IeC {\'s}ci czytanych komunikat\IeC {\'o}w}{31}}
\@writefile{toc}{\contentsline {subsubsection}{Aktorzy}{31}}
\@writefile{toc}{\contentsline {subsubsection}{Za\IeC {\l }o\IeC {\.z}enia}{31}}
\@writefile{toc}{\contentsline {subsubsection}{Czynno\IeC {\'s}ci}{31}}
\@writefile{toc}{\contentsline {subsection}{\numberline {7.2.10}Zmiana cz\IeC {\k e}stotliwo\IeC {\'s}ci aktualizacji lokalizacji}{31}}
\@writefile{toc}{\contentsline {subsubsection}{Aktorzy}{31}}
\@writefile{toc}{\contentsline {subsubsection}{Za\IeC {\l }o\IeC {\.z}enia}{31}}
\@writefile{toc}{\contentsline {subsubsection}{Kr\IeC {\'o}tki opis}{32}}
\@writefile{toc}{\contentsline {subsubsection}{Czynno\IeC {\'s}ci}{32}}
\@writefile{toc}{\contentsline {subsection}{\numberline {7.2.11}Zmiana tempa czytania komunikat\IeC {\'o}w}{32}}
\@writefile{toc}{\contentsline {subsubsection}{Aktorzy}{32}}
\@writefile{toc}{\contentsline {subsubsection}{Za\IeC {\l }o\IeC {\.z}enia}{32}}
\@writefile{toc}{\contentsline {subsubsection}{Czynno\IeC {\'s}ci}{32}}
\@writefile{toc}{\contentsline {subsection}{\numberline {7.2.12}W\IeC {\l }\IeC {\k a}czenie lub wy\IeC {\l }\IeC {\k a}czenie wibracji}{32}}
\@writefile{toc}{\contentsline {subsubsection}{Aktorzy}{32}}
\@writefile{toc}{\contentsline {subsubsection}{Za\IeC {\l }o\IeC {\.z}enia}{32}}
\@writefile{toc}{\contentsline {subsubsection}{Kr\IeC {\'o}tki opis}{32}}
\@writefile{toc}{\contentsline {subsubsection}{Czynno\IeC {\'s}ci}{33}}
\@writefile{toc}{\contentsline {chapter}{\numberline {8}Architektura}{35}}
\@writefile{lof}{\addvspace {10\p@ }}
\@writefile{lot}{\addvspace {10\p@ }}
\@writefile{toc}{\contentsline {section}{\numberline {8.1}Rozpoznawanie gest\IeC {\'o}w od BrightSight}{36}}
\@writefile{toc}{\contentsline {section}{\numberline {8.2}Ustawienia}{36}}
\@writefile{toc}{\contentsline {section}{\numberline {8.3}Google Maps}{36}}
\@writefile{toc}{\contentsline {section}{\numberline {8.4}Widoki}{36}}
\@writefile{toc}{\contentsline {section}{\numberline {8.5}Mowa}{38}}
\@writefile{toc}{\contentsline {section}{\numberline {8.6}Baza POI}{38}}
\@writefile{toc}{\contentsline {section}{\numberline {8.7}Baza lokalizacji}{39}}
\@writefile{toc}{\contentsline {section}{\numberline {8.8}Po\IeC {\l }o\IeC {\.z}enie - us\IeC {\l }uga w tle}{39}}
\@writefile{toc}{\contentsline {section}{\numberline {8.9}Alarmy}{39}}
\@writefile{toc}{\contentsline {section}{\numberline {8.10}Kierunki \IeC {\'s}wiata}{39}}
\@writefile{toc}{\contentsline {chapter}{\numberline {9}Testowanie aplikacji}{41}}
\@writefile{lof}{\addvspace {10\p@ }}
\@writefile{lot}{\addvspace {10\p@ }}
\@writefile{toc}{\contentsline {section}{\numberline {9.1}Ola Safianowska}{41}}
\@writefile{toc}{\contentsline {section}{\numberline {9.2}Niekt\IeC {\'o}re decyzje podj\IeC {\k e}te po konsultacjach z Ol\IeC {\k a}}{41}}
\@writefile{toc}{\contentsline {section}{\numberline {9.3}Rady do produkcji systemu}{42}}
\@writefile{toc}{\contentsline {section}{\numberline {9.4}Pozytywne wra\IeC {\.z}enia}{42}}
\@writefile{toc}{\contentsline {chapter}{\numberline {10}Podzia\IeC {\l } prac}{43}}
\@writefile{lof}{\addvspace {10\p@ }}
\@writefile{lot}{\addvspace {10\p@ }}
\@writefile{toc}{\contentsline {section}{\numberline {10.1}Anna Sza\IeC {\l }ygin}{43}}
\@writefile{toc}{\contentsline {section}{\numberline {10.2}Mateusz Kitlas}{43}}
\@writefile{toc}{\contentsline {section}{\numberline {10.3}Wojciech Chmiel}{44}}
\@writefile{toc}{\contentsline {section}{\numberline {10.4}Zofia Ostoja-Starzycka}{44}}
\@writefile{toc}{\contentsline {chapter}{\numberline {11}Podsumowanie}{45}}
\@writefile{lof}{\addvspace {10\p@ }}
\@writefile{lot}{\addvspace {10\p@ }}
\@writefile{toc}{\contentsline {section}{\numberline {11.1}Pomys\IeC {\l }y na rozw\IeC {\'o}j aplikacji}{45}}
\@writefile{toc}{\contentsline {section}{\numberline {11.2}Perspektywy na przysz\IeC {\l }o\IeC {\'s}\IeC {\'c}}{45}}
\@writefile{toc}{\contentsline {chapter}{\numberline {A}Projekty us\IeC {\l }ugi lokalizacyjnej}{47}}
\@writefile{lof}{\addvspace {10\p@ }}
\@writefile{lot}{\addvspace {10\p@ }}
\@writefile{toc}{\contentsline {section}{\numberline {A.1}Maszty GSM}{47}}
\@writefile{toc}{\contentsline {chapter}{\numberline {B}Uruchamianie aplikacji}{49}}
\@writefile{lof}{\addvspace {10\p@ }}
\@writefile{lot}{\addvspace {10\p@ }}
\@writefile{toc}{\contentsline {section}{\numberline {B.1}Wymagania}{49}}
\@writefile{toc}{\contentsline {section}{\numberline {B.2}Instrukcja}{49}}
\@writefile{toc}{\contentsline {chapter}{\numberline {C}Inne rozwi\IeC {\k a}zania}{51}}
\@writefile{lof}{\addvspace {10\p@ }}
\@writefile{lot}{\addvspace {10\p@ }}
\bibcite{}{1}
\bibcite{}{2}
\bibcite{geocoder}{Geocoder}
\bibcite{Scrum}{Scrum}
\bibcite{LocationManager}{LocationManager}
\bibcite{LocationListener}{LocationListener}
\bibcite{BroadcastReceiver}{BroadcastReceiver}
\bibcite{SQLiteOpenHelper}{SQLiteOpenHelper}
\bibcite{linearlayout}{LinearLayout}
\bibcite{scrollview}{ScrollView}
\@writefile{toc}{\contentsline {chapter}{Bibliografia}{53}}
